<?xml version="1.0" encoding="UTF-8"?>
<svg xmlns="http://www.w3.org/2000/svg" xmlns:xlink="http://www.w3.org/1999/xlink" width="12.178pt" height="12.178pt" viewBox="0 0 12.178 12.178" version="1.1">
<defs>
<g>
<symbol overflow="visible" id="glyph0-0">
<path style="stroke:none;" d=""/>
</symbol>
<symbol overflow="visible" id="glyph0-1">
<path style="stroke:none;" d="M 5.265625 -3.75 L 7.234375 -2.3125 C 7.625 -1.984375 7.65625 -1.984375 7.875 -1.984375 C 8.296875 -1.984375 8.609375 -2.40625 8.609375 -2.765625 C 8.609375 -3 8.5 -3.234375 8.265625 -3.359375 C 8.125 -3.4375 7.921875 -3.484375 5.6875 -4.3125 C 7.90625 -5.125 8.125 -5.171875 8.265625 -5.25 C 8.5 -5.359375 8.609375 -5.59375 8.609375 -5.84375 C 8.609375 -6.203125 8.296875 -6.625 7.875 -6.625 C 7.671875 -6.625 7.640625 -6.625 7.265625 -6.34375 L 5.265625 -4.859375 C 5.34375 -5.296875 5.6875 -7.296875 5.6875 -7.46875 C 5.6875 -7.921875 5.25 -8.125 4.9375 -8.125 C 4.625 -8.125 4.203125 -7.921875 4.203125 -7.46875 C 4.203125 -7.296875 4.5625 -5.21875 4.609375 -4.859375 L 2.65625 -6.296875 C 2.25 -6.625 2.21875 -6.625 2.015625 -6.625 C 1.578125 -6.625 1.28125 -6.203125 1.28125 -5.84375 C 1.28125 -5.609375 1.375 -5.375 1.625 -5.25 C 1.75 -5.171875 1.96875 -5.125 4.203125 -4.3125 C 1.984375 -3.484375 1.75 -3.4375 1.625 -3.359375 C 1.375 -3.25 1.28125 -3.015625 1.28125 -2.765625 C 1.28125 -2.40625 1.578125 -1.984375 2.015625 -1.984375 C 2.203125 -1.984375 2.234375 -1.984375 2.625 -2.265625 L 4.609375 -3.75 C 4.53125 -3.25 4.203125 -1.3125 4.203125 -1.140625 C 4.203125 -0.6875 4.625 -0.484375 4.9375 -0.484375 C 5.25 -0.484375 5.6875 -0.6875 5.6875 -1.140625 C 5.6875 -1.3125 5.328125 -3.4375 5.265625 -3.75 Z M 5.265625 -3.75 "/>
</symbol>
</g>
</defs>
<g id="surface1">
<path style=" stroke:none;fill-rule:nonzero;fill:rgb(100%,100%,100%);fill-opacity:1;" d="M 11.679688 0.496094 L 0.496094 0.496094 L 0.496094 11.679688 L 11.679688 11.679688 Z M 11.679688 0.496094 "/>
<path style="fill:none;stroke-width:0.99628;stroke-linecap:butt;stroke-linejoin:miter;stroke:rgb(0%,0%,0%);stroke-opacity:1;stroke-miterlimit:10;" d="M 5.590687 5.592906 L -5.592906 5.592906 L -5.592906 -5.590688 L 5.590687 -5.590688 Z M 5.590687 5.592906 " transform="matrix(1,0,0,-1,6.089,6.089)"/>
<g style="fill:rgb(32.939148%,21.174622%,75.292969%);fill-opacity:1;">
  <use xlink:href="#glyph0-1" x="1.14" y="10.398"/>
</g>
</g>
</svg>
